{
	"info": {
		"_postman_id": "21acfdfb-ed28-43b8-88c1-5687de7a9877",
		"name": "Escuela",
		"schema": "https://schema.getpostman.com/json/collection/v2.1.0/collection.json",
		"_exporter_id": "13762483",
		"_collection_link": "https://solar-rocket-813991.postman.co/workspace/choper%2Femmanuel~72b6a9d4-23e0-4601-854f-b59615f7e977/collection/13762483-21acfdfb-ed28-43b8-88c1-5687de7a9877?action=share&source=collection_link&creator=13762483"
	},
	"item": [
		{
			"name": "listarAlumnos",
			"request": {
				"method": "GET",
				"header": [],
				"url": {
					"raw": "http://localhost:8086/alumnos/findAll",
					"protocol": "http",
					"host": [
						"localhost"
					],
					"port": "8086",
					"path": [
						"alumnos",
						"findAll"
					]
				}
			},
			"response": []
		},
		{
			"name": "Listaar Alumno Por Estado",
			"request": {
				"method": "GET",
				"header": []
			},
			"response": []
		},
		{
			"name": "create",
			"request": {
				"method": "POST",
				"header": [],
				"body": {
					"mode": "raw",
					"raw": "    {\r\n        \"name\": \"Yu-gi-ho\",\r\n        \"apPaterno\": \"yami\",\r\n        \"apMaterno\": \"Down\",\r\n        \"activo\": 2\r\n    }",
					"options": {
						"raw": {
							"language": "json"
						}
					}
				},
				"url": {
					"raw": "http://localhost:8086/alumnos/create",
					"protocol": "http",
					"host": [
						"localhost"
					],
					"port": "8086",
					"path": [
						"alumnos",
						"create"
					]
				}
			},
			"response": []
		},
		{
			"name": "buscar por Id",
			"request": {
				"method": "GET",
				"header": [],
				"url": {
					"raw": "http://localhost:8086/alumnos/findById/100",
					"protocol": "http",
					"host": [
						"localhost"
					],
					"port": "8086",
					"path": [
						"alumnos",
						"findById",
						"100"
					]
				}
			},
			"response": []
		},
		{
			"name": "eliminaralumno por id",
			"request": {
				"method": "DELETE",
				"header": [],
				"url": {
					"raw": "http://localhost:8086/alumnos/deleteById/100",
					"protocol": "http",
					"host": [
						"localhost"
					],
					"port": "8086",
					"path": [
						"alumnos",
						"deleteById",
						"100"
					]
				}
			},
			"response": []
		},
		{
			"name": "eliminado logico alumno",
			"request": {
				"method": "PUT",
				"header": [],
				"url": {
					"raw": "http://localhost:8086/alumnos/delelLogico/10",
					"protocol": "http",
					"host": [
						"localhost"
					],
					"port": "8086",
					"path": [
						"alumnos",
						"delelLogico",
						"10"
					]
				}
			},
			"response": []
		},
		{
			"name": "listarMaterias",
			"request": {
				"method": "GET",
				"header": [],
				"url": {
					"raw": "http://localhost:8086/materias/findAll",
					"protocol": "http",
					"host": [
						"localhost"
					],
					"port": "8086",
					"path": [
						"materias",
						"findAll"
					]
				}
			},
			"response": []
		},
		{
			"name": "crear materia",
			"request": {
				"method": "POST",
				"header": [],
				"body": {
					"mode": "raw",
					"raw": "    {\r\n        \"name\": \"programacion II\",\r\n        \"activo\": 25\r\n    }",
					"options": {
						"raw": {
							"language": "json"
						}
					}
				},
				"url": {
					"raw": "http://localhost:8086/materias/create",
					"protocol": "http",
					"host": [
						"localhost"
					],
					"port": "8086",
					"path": [
						"materias",
						"create"
					]
				}
			},
			"response": []
		},
		{
			"name": "buscarMateriaPorId",
			"request": {
				"method": "GET",
				"header": [],
				"url": {
					"raw": "http://localhost:8086/materias/findById/5",
					"protocol": "http",
					"host": [
						"localhost"
					],
					"port": "8086",
					"path": [
						"materias",
						"findById",
						"5"
					]
				}
			},
			"response": []
		},
		{
			"name": "buscarPorNombre",
			"request": {
				"method": "GET",
				"header": []
			},
			"response": []
		},
		{
			"name": "actualizar materia por id",
			"request": {
				"method": "PUT",
				"header": [],
				"body": {
					"mode": "raw",
					"raw": "{\r\n    \"id\": 5,\r\n    \"name\": \"matematicas 33\",\r\n    \"activo\": 3\r\n}",
					"options": {
						"raw": {
							"language": "json"
						}
					}
				},
				"url": {
					"raw": "http://localhost:8086/materias/updateById/5",
					"protocol": "http",
					"host": [
						"localhost"
					],
					"port": "8086",
					"path": [
						"materias",
						"updateById",
						"5"
					]
				}
			},
			"response": []
		},
		{
			"name": "eliminar materia",
			"request": {
				"method": "DELETE",
				"header": [],
				"url": {
					"raw": "http://localhost:8086/materias/deleteById/500",
					"protocol": "http",
					"host": [
						"localhost"
					],
					"port": "8086",
					"path": [
						"materias",
						"deleteById",
						"500"
					]
				}
			},
			"response": []
		},
		{
			"name": "eliminado Logico Alumno",
			"request": {
				"method": "PUT",
				"header": [],
				"url": {
					"raw": "http://localhost:8086/alumnos/delelLogico/2",
					"protocol": "http",
					"host": [
						"localhost"
					],
					"port": "8086",
					"path": [
						"alumnos",
						"delelLogico",
						"2"
					]
				}
			},
			"response": []
		},
		{
			"name": "Eliminado Logico Materia",
			"request": {
				"method": "PUT",
				"header": [],
				"url": {
					"raw": "http://localhost:8086/materias/delelLogico/2",
					"protocol": "http",
					"host": [
						"localhost"
					],
					"port": "8086",
					"path": [
						"materias",
						"delelLogico",
						"2"
					]
				}
			},
			"response": []
		},
		{
			"name": "listar materias por estado",
			"request": {
				"method": "GET",
				"header": []
			},
			"response": []
		},
		{
			"name": "boleta",
			"request": {
				"method": "GET",
				"header": []
			},
			"response": []
		},
		{
			"name": "Crear Calificacion",
			"request": {
				"method": "POST",
				"header": [],
				"body": {
					"mode": "raw",
					"raw": "{\r\n\r\n\t\"idAlumno\" : 1,\r\n\t\"idMateria\" : 3,\r\n\t\"calificacion\" : 7.5\r\n}",
					"options": {
						"raw": {
							"language": "json"
						}
					}
				},
				"url": {
					"raw": "http://localhost:8086/calificaciones/crear",
					"protocol": "http",
					"host": [
						"localhost"
					],
					"port": "8086",
					"path": [
						"calificaciones",
						"crear"
					]
				}
			},
			"response": []
		},
		{
			"name": "buscar boleta por idalumno",
			"request": {
				"method": "GET",
				"header": []
			},
			"response": []
		},
		{
			"name": "New Request",
			"request": {
				"method": "GET",
				"header": []
			},
			"response": []
		}
	]
}